…
df_data
```

    ## # A tibble: 2,502,832 × 7
    ##    date       county      state      fips  cases deaths population
    ##    <date>     <chr>       <chr>      <chr> <dbl>  <dbl>      <dbl>
    ##  1 2020-01-21 Snohomish   Washington 53061     1      0     786620
    ##  2 2020-01-22 Snohomish   Washington 53061     1      0     786620
    ##  3 2020-01-23 Snohomish   Washington 53061     1      0     786620
    ##  4 2020-01-24 Cook        Illinois   17031     1      0    5223719
    ##  5 2020-01-24 Snohomish   Washington 53061     1      0     786620
    ##  6 2020-01-25 Orange      California 06059     1      0    3164182
    ##  7 2020-01-25 Cook        Illinois   17031     1      0    5223719
    ##  8 2020-01-25 Snohomish   Washington 53061     1      0     786620
    ##  9 2020-01-26 Maricopa    Arizona    04013     1      0    4253913
    ## 10 2020-01-26 Los Angeles California 06037     1      0   10098052
    ## # … with 2,502,822 more rows
…
<!-- ------------------------- -->

### **q5** Use the `population` estimates in `df_data` to normalize `cases` and `deaths` to produce per 100,000 counts \[3\]. Store these values in the columns `cases_per100k` and `deaths_per100k`.

``` r
## TASK: Normalize cases and deaths
df_normalized <-
  df_data %>% 
  mutate(cases_per100k = (cases/population)*100000, deaths_per100k = (deaths/population)*100000)
  

df_normalized
```

    ## # A tibble: 2,502,832 × 9
    ##    date       county      state      fips  cases deaths popula…¹ cases…² death…³
    ##    <date>     <chr>       <chr>      <chr> <dbl>  <dbl>    <dbl>   <dbl>   <dbl>
    ##  1 2020-01-21 Snohomish   Washington 53061     1      0   786620 0.127         0
    ##  2 2020-01-22 Snohomish   Washington 53061     1      0   786620 0.127         0
    ##  3 2020-01-23 Snohomish   Washington 53061     1      0   786620 0.127         0
    ##  4 2020-01-24 Cook        Illinois   17031     1      0  5223719 0.0191        0
    ##  5 2020-01-24 Snohomish   Washington 53061     1      0   786620 0.127         0
    ##  6 2020-01-25 Orange      California 06059     1      0  3164182 0.0316        0
    ##  7 2020-01-25 Cook        Illinois   17031     1      0  5223719 0.0191        0
    ##  8 2020-01-25 Snohomish   Washington 53061     1      0   786620 0.127         0
    ##  9 2020-01-26 Maricopa    Arizona    04013     1      0  4253913 0.0235        0
    ## 10 2020-01-26 Los Angeles California 06037     1      0 10098052 0.00990       0
    ## # … with 2,502,822 more rows, and abbreviated variable names ¹​population,
    ## #   ²​cases_per100k, ³​deaths_per100k
…
### **q7** Find the top 10 counties in terms of `cases_per100k`, and the top 10 in terms of `deaths_per100k`. Report the population of each county along with the per-100,000 counts. Compare the counts against the mean values you found in q6. Note any observations.

``` r
## TASK: Find the top 10 max cases_per100k counties; report populations as well
df_normalized %>%  
  filter(date == "2021-06-19") %>% 
  arrange(desc(cases_per100k)) %>% 
  select(c(population, cases_per100k))
```

    ## # A tibble: 3,247 × 2
    ##    population cases_per100k
    ##         <dbl>         <dbl>
    ##  1      10767        41061.
    ##  2       5630        39254.
    ##  3       5809        26579.
    ##  4       9573        26460.
    ##  5       5779        25575.
    ##  6      13695        23578.
    ##  7       7526        22947.
    ##  8      10663        22920.
    ##  9       6969        22299.
    ## 10       5486        22257.
    ## # … with 3,237 more rows

``` r
## TASK: Find the top 10 deaths_per100k counties; report populations as well
df_normalized %>%  
  filter(date == "2021-06-19") %>% 
  arrange(desc(deaths_per100k))  %>% 
  select(c(population, deaths_per100k))
```

    ## # A tibble: 3,247 × 2
    ##    population deaths_per100k
    ##         <dbl>          <dbl>
    ##  1       8535           808.
    ##  2       6638           798.
    ##  3       2029           789.
    ##  4       5381           781.
    ##  5        662           755.
    ##  6       2619           725.
    ##  7       4201           714.
    ##  8       1408           710.
    ##  9       5715           700.
    ## 10       1156           692.
    ## # … with 3,237 more rows
…
