…
``` r
## TASK: Choose a sample size and generate samples
n <- 1000 # Choose a sample size
df_q1 <- 
  tibble(
    x = runif(n = n),
    y = runif(n = n)
  ) %>%
    mutate(stat = 4*(sqrt(x^2 + y^2) <= 1)) # Distance from origin is <= 1

df_q1
```

    ## # A tibble: 1,000 × 3
    ##        x     y  stat
    ##    <dbl> <dbl> <dbl>
    ##  1 0.956 0.164     4
    ##  2 0.838 0.582     0
    ##  3 0.988 0.242     0
    ##  4 0.125 0.775     4
    ##  5 0.437 0.509     4
    ##  6 0.788 0.832     0
    ##  7 0.264 0.254     4
    ##  8 0.441 0.197     4
    ##  9 0.603 0.102     4
    ## 10 0.176 0.304     4
    ## # … with 990 more rows
…
